5b755d27a3f64a169597e7d383011694 100
58a209173f7244a1ab1199d333b11c9f 100
6e21e47ca27241e9b225f3c6f9cfe465 100
f4ff035e5c3b41b0a635c52075c54c1f 10
cc4d7b95cf39483ab8a6c60eaf1bd0c6 10
c07c0f1ce3f14095831f13b15cc1fdaf 10
67e705cd8fd44aacb81541f8410a666d 10
04dd551f6c344035956740336ad47635 10
f4ff035e5c3b41b0a635c52075c54c1f 10
f9a6b9467186463eb859633f52e33e9e 10
94b4b37a76514a21814f3d4368e312cc 10
90e514d52c4d457985c7b98aecfdabd6 10
c503bbbeee32492fb40043749928d1c4 10
4f570d2e597a42089381eb7b8e004e1e 10
d204f3e723fc47a6ae2a55d7304a91b2 10
409c9295d09a48c290ff4911572d93be 10
12b52f182eb84a7280b1a1aca27ff033 10
832f1044a9fa46fdbf53347e3e9bf36c 10
c9b6440990bb4e38b6fbb59107284491 10
0b03f21c6bca4b988e33ef0ed80bee64 10
123eb20734e84c3cbf145a1afced78de 10
3447eae04e654f3d95cef153b128a7b7 10
af19bf3057204104882235683ff50f8f 10
9352a1db5faf45dc95929631c9290548 10
8ef7b3bbb0c6473c855ead3a617e2f46 10
015ce2c895b84dc1a84d3c5e45c6497f 10
9afb32717c1c40fc9c4269d59fe876a6 10
ae44616173ae42b68545ab724eb8e82e 10
4bdb4d42fe5b474d900564d17e44bbe0 10
5acf9e95cde1434da3e37573cec1dc53 10
eba4921fde5b4f58926d06449ed58876 10
fd4e05de69284f839d3d787804d7d5e1 10
0064cb1c20d949ea9387a3e80b93b786 10
1f2531c47753494e8ef2ca32b73c3bef 10
94be157af3c146f8af1252f73adc9164 10
905a355a2cf047c68f136507c4827c8b 10
f6ceda4b00d946f9be46ae994c613055 10
5e0ad050436f4b0ab6d95978f6b536d5 10
624d83329e1d43bf9fb2d33105311639 10
12ddfa5e063c458e8bb9cca9b285bc06 10
b0fef2d5c2444a8fb35383f62b826391 10
4cce75ad99c344c793e563b62657a1e5 10
e3a3a7dd50814c11997b3b9d9dbefbf4 10
44da86ead14d43e28f84db4d1a4697bf 10
f4b2813ce67c40f385b499908ffe764b 10
236807f40b6449ae9fc7c06a7af25944 10
5a0dbb2f7eab4b51ac5a57bed0007462 10
72a65f6034d34970a0796d12eee0e326 10
aa2b4dde4a144794bd220af75df98fce 10
9f384e5f6b5f4557924862590122d999 10
fb16eae3509c448d8b13db22984273cc 10
81fa29cd6a024c93be811559c89230d4 10
72a8803740384179915011ed9e54cb2d 10
ce278a21ac834f10892697423f85ef39 10
a7a80d0902ce4a29b651beaf6c133bac 10
1d6bea3db5b44cdcabdd18597e55c5ac 10
1c9c93ab4cdf44c48e062c20409de541 10
676b674d89b14aa7b187482255e85a05 10
c5142d60863a496abaf29dc74f4c5214 10
b847378ba39f4ebbae1c10a94f48664a 10 
2144767c7bf64767b428e47510adbf38 10